[
  "BG5447_5602/1A--Get_started_with_lite.html",
  "BG5447_5602/1B--Password_reminder.html",
  "BG5447_5602/1D--Sale-cancelled.html",
  "BG5447_5602/2A--Invite_to_register.html",
  "BG5447_5602/2B--Invite_reminder.html",
  "BG5447_5602/2C--Acknowledge_registration.html",
  "BG5447_5602/2D--welcome.html",
  "BG5447_5602/2E--Sale_cancelled.html",
  "BG5447_5602/2F--Final_reminder.html",
  "BG5447_5602/2G--On_supply.html",
  "BG5447_5602/2H--Unable_to_supply.html",
  "BG5447_5602/2J--Current_Supplier_Rejection.html",
  "BG5447_5602/3A--password_reset.html",
  "BG5447_5602/3B--Invite_sent_to_different_email.html",
  "BG5447_5602/3C--Message_to_view.html",
  "BG5447_5602/3D--Complaint-acknowledgement.html",
  "BG5447_5602/3E--resolving_complaint.html",
  "BG5447_5602/4A--opening_meter_read.html",
  "BG5447_5602/4B--Monthly_meter_read.html",
  "BG5447_5602/4C--Acknowledge_meter_read.html",
  "BG5447_5602/4D--Bill_available_to_view.html",
  "BG5447_5602/4H--DD_Failed.html",
  "BG5447_5602/4J--DD_Cancelled.html",
  "BG5447_5602/4K--Disconnection_Notice.html",
  "BG5447_5602/4P--Replacement_Bill.html",
  "BG5447_5602/4Q--Opening_Read_Dispute.html",
  "BG5447_5602/4R--Read_Disupute_Rejected.html",
  "BG5447_5602/4S--Read_Disupute_Resolved.html",
  "BG5447_5602/4T--PDV_letter.html",
  "BG5447_5602/4U--Risk_of_disconnection.html",
  "BG5447_5602/4V--Unpaid_bill_reminder_1.html",
  "BG5447_5602/4W--Unpaid_bill_reminder_2.html",
  "BG5447_5602/4X--Unpaid_bill_reminder_3.html",
  "BG5447_5602/4Y--DD_set_up.html",
  "BG5447_5602/4Z--DD_set_up_fail.html",
  "BG5447_5602/5B--Missed_appointment.html",
  "BG5447_5602/5D--Customer_not_booked_appointment.html",
  "BG5447_5602/5E--Customer_books_install.html",
  "BG5447_5602/5F--Smart_meter_working.html",
  "BG5447_5602/5G--Smart_installation_cant_be_completed.html",
  "BG5447_5602/5J--Unable_to_install.html",
  "BG5447_5602/6A--Acknowledge_leave.html",
  "BG5447_5602/6B--Final_bill.html",
  "BG5447_5602/6C--Auto_obection__debt.html",
  "BG5447_5602/6D--Auto_obection__contract.html",
  "BG5447_5602/6E--Auto_obection__debt_and_contract.html",
  "BG5447_5602/6F--Have_you_moved.html",
  "BG5447_5602/6G--Deemed.html"
]